$MeshFormat
2.2 0 8
$EndMeshFormat
$PhysicalNames
4
2 1 "inner_iface1"
2 2 "inner_iface2"
2 3 "inner_iface3"
3 4 "inner"
$EndPhysicalNames
$Nodes
267
1 0 0 0
2 0.5 0 0
3 0.5 0.5 0
4 0 0.5 0
5 0 0 0.5
6 0.5 0 0.5
7 0.5 0.5 0.5
8 0 0.5 0.5
9 0.2499999999993471 0 0
10 0.1249999999997097 0 0
11 0.3749999999996735 0 0
12 0.5 0.2499999999993471 0
13 0.5 0.1249999999997097 0
14 0.5 0.3749999999996735 0
15 0.2500000000010293 0.5 0
16 0.3750000000004703 0.5 0
17 0.1250000000005147 0.5 0
18 0 0.2500000000010293 0
19 0 0.3750000000004703 0
20 0 0.1250000000005147 0
21 0.2499999999993471 0 0.5
22 0.1249999999997097 0 0.5
23 0.3749999999996735 0 0.5
24 0.5 0.2499999999993471 0.5
25 0.5 0.1249999999997097 0.5
26 0.5 0.3749999999996735 0.5
27 0.2500000000010293 0.5 0.5
28 0.3750000000004703 0.5 0.5
29 0.1250000000005147 0.5 0.5
30 0 0.2500000000010293 0.5
31 0 0.3750000000004703 0.5
32 0 0.1250000000005147 0.5
33 0 0 0.2499999999993471
34 0 0 0.1249999999997097
35 0 0 0.3749999999996735
36 0.5 0 0.2499999999993471
37 0.5 0 0.1249999999997097
38 0.5 0 0.3749999999996735
39 0.5 0.5 0.2499999999993471
40 0.5 0.5 0.1249999999997097
41 0.5 0.5 0.3749999999996735
42 0 0.5 0.2499999999993471
43 0 0.5 0.1249999999997097
44 0 0.5 0.3749999999996735
45 0.2500000000000522 0.2500000000000575 0
46 0.1250000000005146 0.3750000000005146 0
47 0.3750000000003431 0.3749999999997824 0
48 0.1249999999997196 0.1250000000003431 0
49 0.3749999999997911 0.124999999999792 0
50 0.3125000000001977 0.31249999999992 0
51 0.3125000000006862 0.4374999999998912 0
52 0.2500000000005408 0.3750000000000288 0
53 0.3750000000000261 0.2499999999997023 0
54 0.4375000000001715 0.3124999999995648 0
55 0.4375000000001715 0.4374999999998912 0
56 0.1874999999998859 0.1875000000002003 0
57 0.1874999999995334 0.06250000000017156 0
58 0.2499999999996997 0.1250000000000287 0
59 0.1250000000000261 0.2500000000005434 0
60 0.06249999999985981 0.1875000000006862 0
61 0.06249999999985981 0.06250000000017156 0
62 0.3124999999995691 0.06249999999989598 0
63 0.3124999999999217 0.1874999999999247 0
64 0.4374999999998955 0.1874999999995695 0
65 0.1875000000002834 0.312500000000286 0
66 0.06250000000025732 0.312500000000772 0
67 0.187500000000772 0.4375000000002573 0
68 0.4374999999998955 0.06249999999989598 0
69 0.06250000000025732 0.4375000000002573 0
70 0.2499999999998135 0 0.3214285714282917
71 0.3249999999997669 0 0.1392857142854625
72 0.1649999999997855 0 0.1421428571426203
73 0.287499999999557 0 0.06964285714273125
74 0.4124999999998834 0 0.06964285714273125
75 0.4124999999998834 0 0.1946428571424048
76 0.2499999999995803 0 0.4107142857141458
77 0.3749999999999067 0 0.4107142857141458
78 0.3749999999999067 0 0.2857142857138194
79 0.2074999999995663 0 0.07107142857131013
80 0.08249999999989274 0 0.07107142857131013
81 0.08249999999989274 0 0.1960714285709837
82 0.1249999999999067 0 0.4107142857141458
83 0.1249999999999067 0 0.2857142857138194
84 0.2449999999997762 0 0.1407142857140414
85 0.2874999999997901 0 0.2303571428568771
86 0.2074999999997995 0 0.231785714285456
87 0.5 0.2499999999998135 0.3214285714282917
88 0.5 0.3249999999997669 0.1392857142854625
89 0.5 0.1649999999997855 0.1421428571426203
90 0.5 0.4124999999998834 0.1946428571424048
91 0.5 0.3749999999999067 0.2857142857138194
92 0.5 0.2874999999997901 0.2303571428568771
93 0.5 0.4124999999998834 0.06964285714273125
94 0.5 0.3749999999999067 0.4107142857141458
95 0.5 0.2074999999997995 0.231785714285456
96 0.5 0.2449999999997762 0.1407142857140414
97 0.5 0.2074999999995663 0.07107142857131013
98 0.5 0.287499999999557 0.06964285714273125
99 0.5 0.08249999999989274 0.1960714285709837
100 0.5 0.1249999999999067 0.2857142857138194
101 0.5 0.08249999999989274 0.07107142857131013
102 0.5 0.2499999999995803 0.4107142857141458
103 0.5 0.1249999999999067 0.4107142857141458
104 0.3214285714290126 0.5 0.2499999999998135
105 0.1392857142861114 0.5 0.3249999999997669
106 0.1421428571432307 0.5 0.1649999999997855
107 0.4107142857145063 0.5 0.2499999999995803
108 0.4107142857145063 0.5 0.3749999999999067
109 0.4107142857145063 0.5 0.1249999999999067
110 0.230357142857562 0.5 0.2874999999997901
111 0.2317857142861216 0.5 0.2074999999997995
112 0.140714285714671 0.5 0.2449999999997762
113 0.19607142857213 0.5 0.08249999999989274
114 0.285714285715021 0.5 0.1249999999999067
115 0.0710714285716153 0.5 0.2074999999995663
116 0.06964285714305568 0.5 0.287499999999557
117 0.0710714285716153 0.5 0.08249999999989274
118 0.1946428571435703 0.5 0.4124999999998834
119 0.285714285715021 0.5 0.3749999999999067
120 0.06964285714305568 0.5 0.4124999999998834
121 0 0.3214285714290126 0.2499999999998135
122 0 0.1392857142861114 0.3249999999997669
123 0 0.1421428571432307 0.1649999999997855
124 0 0.4107142857145063 0.2499999999995803
125 0 0.4107142857145063 0.1249999999999067
126 0 0.4107142857145063 0.3749999999999067
127 0 0.285714285715021 0.1249999999999067
128 0 0.19607142857213 0.08249999999989274
129 0 0.0710714285716153 0.08249999999989274
130 0 0.0710714285716153 0.2074999999995663
131 0 0.285714285715021 0.3749999999999067
132 0 0.1946428571435703 0.4124999999998834
133 0 0.06964285714305568 0.4124999999998834
134 0 0.06964285714305568 0.287499999999557
135 0 0.230357142857562 0.2874999999997901
136 0 0.2317857142861216 0.2074999999997995
137 0 0.140714285714671 0.2449999999997762
138 0.2500000000000185 0.2500000000000575 0.5
139 0.1250000000003431 0.3750000000003431 0.5
140 0.3750000000003431 0.3749999999997824 0.5
141 0.1249999999997227 0.1250000000003527 0.5
142 0.3749999999997855 0.124999999999792 0.5
143 0.4375000000001715 0.4374999999998912 0.5
144 0.4375000000001715 0.3124999999995648 0.5
145 0.3125000000006862 0.4374999999998912 0.5
146 0.4374999999998928 0.1874999999995695 0.5
147 0.4374999999998928 0.06249999999989598 0.5
148 0.3124999999995663 0.06249999999989598 0.5
149 0.06250000000017156 0.4375000000001715 0.5
150 0.1875000000006862 0.4375000000001715 0.5
151 0.06250000000017156 0.3125000000006862 0.5
152 0.1874999999995349 0.06250000000017635 0.5
153 0.06249999999986135 0.06250000000017635 0.5
154 0.06249999999986135 0.187500000000691 0.5
155 0.3125000000001808 0.31249999999992 0.5
156 0.3750000000000092 0.2499999999997023 0.5
157 0.312499999999902 0.1874999999999247 0.5
158 0.2500000000005239 0.3750000000000288 0.5
159 0.1875000000001808 0.3125000000002003 0.5
160 0.2499999999996828 0.1250000000000287 0.5
161 0.1874999999998706 0.1875000000002051 0.5
162 0.1250000000000092 0.2500000000005434 0.5
163 0.2368804664721901 0.2397959183674406 0.2499999999999992
164 0.253968000531182 0.3710319994691995 0.3692991942410978
165 0.3718161221883386 0.1236022020765834 0.2589496317480685
166 0.255981228010167 0.3690187719902066 0.1307242836303783
167 0.1150779046978445 0.2599220953025803 0.3712008901440025
168 0.06250000000025732 0.2585714285718727 0.08249999999989274
169 0.1250000000000261 0.1960714285716441 0.08249999999989274
170 0.2434402332361212 0.244897959183749 0.1249999999999996
171 0.1184402332360951 0.1909693877553356 0.2074999999998923
172 0.1809402332363524 0.3073979591839776 0.1249999999999996
173 0.06249999999985981 0.1335714285717869 0.08249999999989274
174 0.1809402332359549 0.1823979591838919 0.1249999999999996
175 0.06250000000025732 0.3482142857147636 0.1249999999999067
176 0.1184402332360951 0.2806122448982266 0.2499999999999063
177 0.4107142857145063 0.4124999999998834 0.194642857142638
178 0.2791545189506014 0.3698979591837203 0.2499999999999063
179 0.3684402332360951 0.2823979591836038 0.1946428571427308
180 0.3779906140050835 0.3470093859949867 0.1350049989579204
181 0.2464308472411786 0.3044073451788236 0.1903621418151887
182 0.2887048997195898 0.4345093859951032 0.1903621418150959
183 0.4107142857145063 0.3749999999999067 0.2857142857140526
184 0.3684402332360951 0.2448979591836271 0.2857142857141454
185 0.3750000000000261 0.2074999999999215 0.07107142857131013
186 0.3750000000000261 0.2874999999999122 0.06964285714273125
187 0.2529906140051096 0.309509385995132 0.06536214181518916
188 0.3779906140050835 0.267009385994996 0.1364335703864993
189 0.3684402332360951 0.2023979591836131 0.1960714285713097
190 0.2074999999999189 0.1250000000000287 0.07107142857131013
191 0.2874999999999096 0.1250000000000287 0.06964285714273125
192 0.2809402332359785 0.1198979591837203 0.1946428571427308
193 0.2009402332359878 0.1198979591837203 0.1960714285713097
194 0.08249999999989274 0.07107142857161533 0.1535714285712029
195 0.08249999999989274 0.06964285714305568 0.2335714285711936
196 0.1184402332360951 0.189540816326776 0.287499999999883
197 0.1904906140053408 0.3720093859953606 0.06536214181518916
198 0.1279906140050835 0.3452236717096095 0.1903621418150959
199 0.1249999999999067 0.06964285714305568 0.3232142857140293
200 0.2434402332360018 0.1198979591837203 0.2857142857141454
201 0.2876982859800973 0.4355159997345998 0.3096495971204556
202 0.245424233501686 0.3054139589183201 0.3096495971205485
203 0.376984000265591 0.3105159997345065 0.3453638828346948
204 0.4374999999998955 0.1449999999997887 0.07107142857131013
205 0.3059402332359906 0.1823979591836163 0.1249999999999996
206 0.2249999999997432 0.06250000000017156 0.06964285714273125
207 0.1449999999997525 0.06250000000017156 0.07107142857131013
208 0.4374999999998955 0.2249999999997794 0.06964285714273125
209 0.4375000000001715 0.3124999999997979 0.4107142857141458
210 0.4375000000001715 0.4374999999998912 0.3749999999996736
211 0.376984000265591 0.4355159997345998 0.3096495971202224
212 0.3144840002657625 0.373015999734491 0.4346495971205489
213 0.4359080610941693 0.1443011010381844 0.2005462444453444
214 0.3043482943302643 0.181699060222012 0.2544748158740339
215 0.3734080610940649 0.1243011010381877 0.1294748158740343
216 0.06249999999986135 0.132142857143232 0.4124999999998834
217 0.1874999999997681 0.06250000000017635 0.4107142857141458
218 0.349999999999779 0.06249999999989598 0.06964285714273125
219 0.4359080610941693 0.2243011010381751 0.1991176730167655
220 0.06964285714305568 0.4107142857145063 0.2874999999997901
221 0.1880830903791507 0.3698979591837203 0.287499999999883
222 0.1895116618077104 0.3698979591837203 0.2074999999998923
223 0.1990620425766988 0.4345093859951032 0.1478621418150819
224 0.1976334711481392 0.4345093859951032 0.2278621418150726
225 0.2549746142706745 0.370025385729703 0.2500117389357381
226 0.07107142857161533 0.4107142857145063 0.2074999999997995
227 0.3482142857146778 0.4374999999998912 0.3749999999999067
228 0.4375000000001715 0.3499999999997746 0.06964285714273125
229 0.1809402332359564 0.1823979591838967 0.3749999999999996
230 0.2434402332361043 0.244897959183749 0.3749999999999996
231 0.1825389523489315 0.2549610476513189 0.4356004450720012
232 0.1759791855850173 0.2498590068350104 0.3106004450720008
233 0.1200389523487836 0.1924610476514665 0.4356004450720012
234 0.182538952348829 0.1299610476512901 0.3463147307861471
235 0.05753895234892224 0.1996039047943458 0.3481004450718846
236 0.2519840002656002 0.3105159997346285 0.4346495971205489
237 0.3750000000000092 0.2499999999999355 0.4107142857141458
238 0.4359080610941693 0.1868011010381984 0.2901891015881801
239 0.3109080610941786 0.1868011010383204 0.3794748158740343
240 0.3128920613597603 0.2473171007728914 0.3141244129945832
241 0.06250000000017156 0.3482142857146778 0.3749999999999067
242 0.1321428571432272 0.4375000000001715 0.4124999999998834
243 0.315490614005255 0.3720093859949944 0.06536214181518916
244 0.3484080610940528 0.06180110103829169 0.1991176730167655
245 0.1335714285718727 0.4375000000002573 0.08249999999989274
246 0.3482142857146778 0.4374999999998912 0.1249999999999067
247 0.4375000000001715 0.4374999999998912 0.1249999999996736
248 0.249999999999916 0.1250000000000287 0.4107142857141458
249 0.126984000265591 0.3462302854491061 0.3096495971204556
250 0.1966268574086467 0.4355159997345998 0.3471495971204324
251 0.1271818094919779 0.3799610476512901 0.3481004450718846
252 0.1845229526145132 0.3154770473858899 0.3702500421925501
253 0.05753895234892224 0.2906753333657964 0.310600445071908
254 0.4374999999998928 0.1874999999998027 0.4107142857141458
255 0.373408061094062 0.1243011010381877 0.3794748158740343
256 0.4359080610941693 0.06180110103829169 0.3794748158740343
257 0.310908061094076 0.06180110103829169 0.2901891015881801
258 0.3124999999997995 0.06249999999989598 0.4107142857141458
259 0.1200389523490938 0.3174610476514617 0.4356004450720012
260 0.05753895234892224 0.2549610476518048 0.4356004450720012
261 0.4359080610941693 0.06180110103829169 0.2544748158737078
262 0.2519840002661057 0.4355159997345998 0.4346495971205489
263 0.2529906140055982 0.4345093859951032 0.06536214181518916
264 0.05753895234892224 0.2010324762229055 0.268100445071894
265 0.268408061094062 0.06180110103829169 0.2005462444453444
266 0.4124999999998834 0.08249999999989274 0.1407142857140414
267 0.1894840002657625 0.3730159997347713 0.4346495971205489
$EndNodes
$Elements
174
1 9 2 1 23 88 39 87 90 91 92
2 9 2 1 23 39 88 3 90 93 40
3 9 2 1 23 87 39 7 91 41 94
4 9 2 1 23 88 87 89 92 95 96
5 9 2 1 23 88 89 12 96 97 98
6 9 2 1 23 88 12 3 98 14 93
7 9 2 1 23 36 89 87 99 95 100
8 9 2 1 23 12 89 2 97 101 13
9 9 2 1 23 89 36 2 99 37 101
10 9 2 1 23 24 87 7 102 94 26
11 9 2 1 23 87 24 6 102 25 103
12 9 2 1 23 36 87 6 100 103 38
13 9 2 2 27 39 104 7 107 108 41
14 9 2 2 27 104 39 3 107 40 109
15 9 2 2 27 105 104 106 110 111 112
16 9 2 2 27 15 106 104 113 111 114
17 9 2 2 27 105 106 42 112 115 116
18 9 2 2 27 42 106 4 115 117 43
19 9 2 2 27 106 15 4 113 17 117
20 9 2 2 27 105 27 104 118 119 110
21 9 2 2 27 104 27 7 119 28 108
22 9 2 2 27 15 104 3 114 109 16
23 9 2 2 27 105 42 8 116 44 120
24 9 2 2 27 27 105 8 118 120 29
25 9 2 3 32 7 140 24 143 144 26
26 9 2 3 32 7 27 140 28 145 143
27 9 2 3 32 6 24 142 25 146 147
28 9 2 3 32 6 142 21 147 148 23
29 9 2 3 32 8 139 27 149 150 29
30 9 2 3 32 8 30 139 31 151 149
31 9 2 3 32 5 21 141 22 152 153
32 9 2 3 32 5 141 30 153 154 32
33 9 2 3 32 24 140 138 144 155 156
34 9 2 3 32 24 138 142 156 157 146
35 9 2 3 32 27 138 140 158 155 145
36 9 2 3 32 27 139 138 150 159 158
37 9 2 3 32 21 142 138 148 157 160
38 9 2 3 32 21 138 141 160 161 152
39 9 2 3 32 30 138 139 162 159 151
40 9 2 3 32 30 141 138 154 161 162
41 11 2 4 1 45 46 123 163 65 168 169 170 171 172
42 11 2 4 1 18 45 46 123 59 65 66 128 168 169
43 11 2 4 1 48 45 18 123 56 59 60 173 128 169
44 11 2 4 1 48 45 123 163 56 169 173 174 171 170
45 11 2 4 1 123 46 121 163 168 175 136 171 176 172
46 11 2 4 1 104 88 163 166 177 179 178 182 181 180
47 11 2 4 1 104 88 87 163 177 92 183 178 184 179
48 11 2 4 1 121 18 46 123 127 66 175 136 168 128
49 11 2 4 1 89 88 45 166 96 186 185 188 187 180
50 11 2 4 1 88 89 163 166 96 189 179 180 181 188
51 11 2 4 1 45 72 71 163 190 84 191 170 192 193
52 11 2 4 1 72 123 122 163 194 137 195 193 196 171
53 11 2 4 1 46 121 163 166 175 176 172 197 181 198
54 11 2 4 1 89 45 163 166 185 170 189 188 181 187
55 11 2 4 1 45 46 163 166 65 172 170 187 181 197
56 11 2 4 1 122 33 70 5 134 83 199 133 82 35
57 11 2 4 1 70 72 122 163 86 195 199 200 196 193
58 11 2 4 1 87 104 163 164 183 178 184 203 202 201
59 11 2 4 1 89 45 49 163 185 63 204 189 205 170
60 11 2 4 1 71 45 48 72 191 56 206 84 207 190
61 11 2 4 1 49 45 89 88 63 185 204 208 96 186
62 11 2 4 1 33 122 70 72 134 199 83 81 86 195
63 11 2 4 1 39 87 140 164 91 209 210 211 212 203
64 11 2 4 1 49 89 163 165 204 189 205 215 214 213
65 11 2 4 1 141 122 70 5 216 199 217 153 82 133
66 11 2 4 1 45 48 72 163 56 207 190 170 193 174
67 11 2 4 1 49 45 71 163 63 191 218 205 192 170
68 11 2 4 1 48 71 72 9 206 84 207 57 79 73
69 11 2 4 1 12 49 89 88 64 204 97 98 96 208
70 11 2 4 1 89 88 163 165 96 179 189 213 214 219
71 11 2 4 1 122 33 123 72 134 130 137 195 194 81
72 11 2 4 1 121 105 42 8 220 116 124 126 44 120
73 11 2 4 1 106 105 163 166 112 221 222 223 181 224
74 11 2 4 1 39 104 87 164 107 183 91 211 203 201
75 11 2 4 1 72 48 123 163 207 173 194 193 171 174
76 11 2 4 1 164 104 163 166 201 178 202 225 181 182
77 11 2 4 1 106 105 121 163 112 220 226 222 176 221
78 11 2 4 1 106 121 42 4 226 124 115 117 43 125
79 11 2 4 1 104 39 140 164 107 210 227 201 212 211
80 11 2 4 1 49 71 45 9 218 191 63 62 58 73
81 11 2 4 1 12 45 88 47 53 186 98 54 228 50
82 11 2 4 1 45 71 48 9 191 206 56 58 57 73
83 11 2 4 1 45 49 12 88 63 64 53 186 98 208
84 11 2 4 1 104 87 88 39 183 92 177 107 90 91
85 11 2 4 1 141 138 163 167 161 230 229 233 232 231
86 11 2 4 1 7 87 140 39 94 209 143 41 210 91
87 11 2 4 1 122 70 163 167 199 200 196 235 232 234
88 11 2 4 1 164 87 138 165 203 237 236 240 239 238
89 11 2 4 1 70 141 163 167 217 229 200 234 232 233
90 11 2 4 1 164 138 163 165 236 230 202 240 214 239
91 11 2 4 1 121 139 105 8 241 242 220 126 120 149
92 11 2 4 1 88 47 45 166 228 50 186 180 187 243
93 11 2 4 1 71 49 163 165 218 205 192 244 214 215
94 11 2 4 1 121 106 46 4 226 245 175 125 69 117
95 11 2 4 1 87 164 163 165 203 202 184 238 214 240
96 11 2 4 1 104 88 47 39 177 228 246 107 247 90
97 11 2 4 1 7 27 104 140 28 119 108 143 227 145
98 11 2 4 1 30 139 121 8 151 241 131 31 126 149
99 11 2 4 1 15 3 104 47 16 109 114 51 246 55
100 11 2 4 1 18 121 46 4 127 175 66 19 69 125
101 11 2 4 1 138 70 141 163 248 217 161 230 229 200
102 11 2 4 1 88 3 47 39 93 55 228 90 247 40
103 11 2 4 1 121 106 163 166 226 222 176 198 181 223
104 11 2 4 1 105 121 164 167 220 249 250 251 252 253
105 11 2 4 1 70 122 141 167 199 216 217 234 233 235
106 11 2 4 1 87 6 142 165 103 147 254 238 255 256
107 11 2 4 1 105 164 163 166 250 202 221 224 181 225
108 11 2 4 1 138 87 142 165 237 254 157 239 255 238
109 11 2 4 1 138 70 163 165 248 200 230 239 214 257
110 11 2 4 1 6 70 142 165 77 258 147 256 255 257
111 11 2 4 1 105 121 163 164 220 176 221 250 202 249
112 11 2 4 1 30 121 139 167 131 241 151 260 259 253
113 11 2 4 1 70 138 142 165 248 157 258 257 255 239
114 11 2 4 1 104 7 140 39 108 143 227 107 210 41
115 11 2 4 1 3 104 47 39 109 246 55 40 247 107
116 11 2 4 1 140 87 138 164 209 237 155 212 236 203
117 11 2 4 1 46 106 121 166 245 226 175 197 198 223
118 11 2 4 1 121 105 139 167 220 242 241 253 259 251
119 11 2 4 1 47 88 104 166 228 177 246 243 182 180
120 11 2 4 1 88 87 163 165 92 184 179 219 214 238
121 11 2 4 1 164 121 163 167 249 176 202 252 232 253
122 11 2 4 1 6 87 36 165 103 100 38 256 261 238
123 11 2 4 1 70 6 36 165 77 38 78 257 261 256
124 11 2 4 1 7 87 24 140 94 102 26 143 144 209
125 11 2 4 1 142 6 21 70 147 23 148 258 76 77
126 11 2 4 1 87 24 140 138 102 144 209 237 155 156
127 11 2 4 1 87 24 138 142 102 156 237 254 157 146
128 11 2 4 1 138 142 21 70 157 148 160 248 76 258
129 11 2 4 1 141 138 21 70 161 160 152 217 76 248
130 11 2 4 1 87 6 24 142 103 25 102 254 146 147
131 11 2 4 1 21 141 70 5 152 217 76 22 82 153
132 11 2 4 1 27 104 140 164 119 227 145 262 212 201
133 11 2 4 1 47 104 15 166 246 114 51 243 263 182
134 11 2 4 1 123 122 163 167 137 196 171 264 232 235
135 11 2 4 1 72 71 163 165 84 192 193 265 214 244
136 11 2 4 1 121 123 163 167 136 171 176 253 232 264
137 11 2 4 1 70 72 163 165 86 193 200 257 214 265
138 11 2 4 1 122 123 121 167 137 136 135 235 253 264
139 11 2 4 1 72 70 71 165 86 85 84 265 244 257
140 11 2 4 1 88 89 87 165 96 95 92 219 238 213
141 11 2 4 1 33 123 72 1 130 194 81 34 80 129
142 11 2 4 1 106 104 105 166 111 110 112 223 224 182
143 11 2 4 1 105 104 164 166 110 201 250 224 225 182
144 11 2 4 1 71 2 89 36 74 101 266 75 99 37
145 11 2 4 1 106 121 105 42 226 220 112 115 116 124
146 11 2 4 1 71 2 49 89 74 68 218 266 204 101
147 11 2 4 1 122 121 30 167 135 131 132 235 260 253
148 11 2 4 1 105 104 27 164 110 119 118 250 262 201
149 11 2 4 1 139 27 105 8 150 118 242 149 120 29
150 11 2 4 1 141 30 122 5 154 132 216 153 133 32
151 11 2 4 1 104 106 15 166 111 113 114 182 263 223
152 11 2 4 1 89 49 71 165 204 218 266 213 244 215
153 11 2 4 1 3 12 88 47 14 98 93 55 228 54
154 11 2 4 1 2 71 49 9 74 218 68 11 62 73
155 11 2 4 1 123 48 72 1 173 207 194 129 80 61
156 11 2 4 1 49 2 12 89 68 13 64 204 97 101
157 11 2 4 1 48 72 1 9 207 80 61 57 10 79
158 11 2 4 1 106 15 46 4 113 67 245 117 69 17
159 11 2 4 1 18 48 123 1 60 173 128 20 129 61
160 11 2 4 1 105 164 139 167 250 267 242 251 259 252
161 11 2 4 1 71 70 36 165 85 78 75 244 261 257
162 11 2 4 1 87 89 36 165 95 99 100 238 261 213
163 11 2 4 1 138 164 163 167 236 202 230 231 232 252
164 11 2 4 1 89 71 36 165 266 75 99 213 261 244
165 11 2 4 1 27 140 138 164 145 155 158 262 236 212
166 11 2 4 1 139 27 138 164 150 158 159 267 236 262
167 11 2 4 1 30 139 138 167 151 159 162 260 231 259
168 11 2 4 1 30 138 141 167 162 161 154 260 233 231
169 11 2 4 1 45 47 15 166 50 51 52 187 263 243
170 11 2 4 1 46 45 15 166 65 52 67 197 263 187
171 11 2 4 1 105 27 139 164 118 150 242 250 267 262
172 11 2 4 1 122 30 141 167 132 154 216 235 233 260
173 11 2 4 1 106 46 15 166 245 67 113 223 263 197
174 11 2 4 1 139 164 138 167 267 236 159 259 231 252
$EndElements
