
0                         1.00000288551309
8.33E-4                   0.9969918505576181
0.001667                  0.9939658461392615
0.0025                    0.9909407769260863
0.003333                  0.9879131209486252
0.004167                  0.9848789164229291
0.005                     0.9818455645905152
0.005833                  0.9788095049283528
0.006667                  0.9757671865066997
0.0075                    0.9727259987155157
0.008333                  0.9696823902466843
0.009167                  0.9666327963934512
0.01                      0.9635846236398846
0.010833                  0.9605343098016121
0.011667                  0.9574782811756276
0.0125                    0.9544239580501004
0.013333                  0.9513677686916262
0.014167                  0.9483061313099982
0.015                     0.9452464780496057
0.015833                  0.9421852286266967
0.016667                  0.9391187941448316
0.0175                    0.9360546166681539
0.018333                  0.9329891083502866
0.019167                  0.9299186741511143
0.02                      0.9268507641526292
0.020833                  0.9237817839167382
0.021667                  0.9207081332049796
0.0225                    0.9176372682497064
0.023333                  0.9145655889748797
0.024167                  0.9114894908724718
0.025                     0.908416434491488
0.025833                  0.9053428150548982
0.026667                  0.9022650246973068
0.0275                    0.8991905264842306
0.028333                  0.8961157118579716
0.029167                  0.8930369704913994
0.03                      0.8899617661998243
0.030833                  0.8868864875486691
0.031667                  0.883807522628179
0.0325                    0.8807323342700445
0.033333                  0.8776573090500108
0.034167                  0.8745788343386327
0.035                     0.8715043702833829
0.035833                  0.8684303023412392
0.036667                  0.8653530180097329
0.0375                    0.86227997308433
0.038333                  0.8592075527577749
0.039167                  0.8561321454853155
0.04                      0.8530612010748632
0.040833                  0.849991105293534
0.041667                  0.8469182483690405
0.0425                    0.8438500725184278
0.043333                  0.8407829649056305
0.044167                  0.8377133183299006
0.045                     0.8346485658457284
0.045833                  0.8315850968210496
0.046667                  0.8285193074091084
0.0475                    0.8254586199630601
0.048333                  0.8223994268448277
0.049167                  0.8193381283300426
0.05                      0.8162821345616249
0.050833                  0.8132278416712323
0.051667                  0.8101716548086596
0.0525                    0.8071209704297715
0.053333                  0.8040721891954824
0.054167                  0.8010217218666251
0.055                     0.7979769497658918
0.055833                  0.7949342788277267
0.056667                  0.7918901261455819
0.0575                    0.7888518564935709
0.058333                  0.7858158818086248
0.059167                  0.7827786262232521
0.06                      0.7797474365779461
0.060833                  0.7767187315260711
0.061667                  0.7736889429305178
0.0625                    0.7706653983434743
0.063333                  0.7676445238333867
0.064167                  0.7646227596702654
0.065                     0.7616074127929696
0.065833                  0.7585949173689184
0.066667                  0.7555817227371129
0.0675                    0.7525751139278104
0.068333                  0.7495715338764938
0.069167                  0.7465674416383951
0.07                      0.7435700990692237
0.070833                  0.7405759585272288
0.071667                  0.737581489416107
0.0725                    0.7345939291813086
0.073333                  0.7316097402407195
0.074167                  0.7286254029697236
0.075                     0.7256481291918239
0.075833                  0.7226743920137171
0.076667                  0.7197006833808963
0.0775                    0.7167341883192447
0.078333                  0.7137713912356017
0.079167                  0.7108087962357631
0.08                      0.7078535603968288
0.080833                  0.7049021800210462
0.081667                  0.7019511719526703
0.0825                    0.6990076641960684
0.083333                  0.6960681655323276
0.084167                  0.6931292061061142
0.085                     0.6901978837542143
0.085833                  0.6872707203053904
0.086667                  0.6843442597536286
0.0875                    0.6814255687000801
0.088333                  0.6785111825769395
0.089167                  0.6755976597619577
0.09                      0.6726920345810564
0.090833                  0.6697908566106778
0.091667                  0.6668906991346016
0.0925                    0.6639985631895732
0.093333                  0.661111013024989
0.094167                  0.6582246373382571
0.095                     0.6553464028909929
0.095833                  0.652472889119584
0.096667                  0.6496007006307597
0.0975                    0.6467367689502417
0.098333                  0.6438776892034814
0.099167                  0.641020082387808
0.1                       0.6381708438598661
0.100833                  0.6353265849218315
0.101667                  0.6324839434310842
0.1025                    0.6296497776667592
0.103333                  0.6268207155834922
0.104167                  0.6239934123547665
0.105                     0.621174688300193
0.105833                  0.6183611884887277
0.106667                  0.6155495858535655
0.1075                    0.6127466618980172
0.108333                  0.6099490792552763
0.109167                  0.6071535290489276
0.11                      0.6043667531343847
0.110833                  0.6015854321458556
0.111667                  0.5988062758161329
0.1125                    0.5960359855456641
0.113333                  0.5932712603945122
0.114167                  0.5905088291103824
0.115                     0.5877553518571663
0.115833                  0.5850075465323514
0.116667                  0.5822621612930292
0.1175                    0.5795258143083802
0.118333                  0.5767952427134749
0.119167                  0.5740672144565494
0.12                      0.5713483049785566
0.120833                  0.5686352710398777
0.121667                  0.5659249007497795
0.1225                    0.5632237261113392
0.123333                  0.5605285238856907
0.124167                  0.5578361027033599
0.125                     0.5551529504414142
0.125833                  0.5524758642261217
0.126667                  0.5498016735521783
0.1275                    0.547136821511113
0.128333                  0.5444781259463407
0.129167                  0.5418224375532472
0.13                      0.5391761539967018
0.130833                  0.536536114177562
0.131667                  0.5338991903157018
0.1325                    0.5312717340321026
0.133333                  0.5286506056142386
0.134167                  0.5260326991186884
0.135                     0.5234243195281738
0.135833                  0.5208223488343194
0.136667                  0.5182237032317818
0.1375                    0.5156346404926395
0.138333                  0.5130520646192123
0.139167                  0.5104729142343017
0.14                      0.5079033993491253
0.140833                  0.5053404462722115
0.141667                  0.5027810163334575
0.1425                    0.5002312712552487
0.143333                  0.4976881599361647
0.144167                  0.49514866668203983
0.145                     0.49261890441919903
0.145833                  0.49009584491015934
0.146667                  0.48757649569412725
0.1475                    0.4850669204158405
0.148333                  0.4825641139646184
0.149167                  0.48006510736015784
0.15                      0.47757591450115117
0.150833                  0.4750935536555945
0.151667                  0.4726150795609106
0.1525                    0.470146455925309
0.153333                  0.46768472463795446
0.154167                  0.46522696437954647
0.155                     0.4627790882453656
0.155833                  0.4603381619763917
0.156667                  0.4579012884134465
0.1575                    0.4554743296353867
0.158333                  0.4530543754563666
0.159167                  0.4506385530834815
0.16                      0.44823267319621235
0.160833                  0.4458338498926374
0.161667                  0.44343923494284054
0.1625                    0.4410545872631177
0.163333                  0.4386770454371522
0.164167                  0.43630378598373354
0.165                     0.4339405157128943
0.165833                  0.4315843978845183
0.166667                  0.4292326339433477
0.1675                    0.42689087826834854
0.168333                  0.4245563189771067
0.169167                  0.42222618260757605
0.17                      0.4199060708021599
0.170833                  0.41759319670779405
0.171667                  0.41528481211365753
0.1725                    0.4129864656385534
0.173333                  0.4106953956215756
0.174167                  0.4084088792509417
0.175                     0.4061324118542336
0.175833                  0.40386325711505994
0.176667                  0.40159871776049727
0.1775                    0.3993442355764434
0.178333                  0.39709709973512675
0.179167                  0.39485463863223885
0.18                      0.3926222402806385
0.180833                  0.39039721947502515
0.181667                  0.38817693040143714
0.1825                    0.38596670708535313
0.183333                  0.38376389006953165
0.184167                  0.3815658594425922
0.185                     0.3793778950460886
0.185833                  0.3771973632877871
0.186667                  0.37502167026190003
0.1875                    0.3728560414474661
0.188333                  0.3706978692245053
0.189167                  0.36854458578816846
0.19                      0.3664013620928604
0.190833                  0.36426561658970913
0.191667                  0.3621348076616233
0.1925                    0.3600140515927712
0.193333                  0.3579007929964671
0.194167                  0.3557925165206196
0.195                     0.353694283651612
0.195833                  0.3516035652461804
0.196667                  0.34951787228758097
0.1975                    0.3474422113517768
0.198333                  0.34537407961315236
0.199167                  0.3433110144514568
0.2                       0.3412579674367959
0.200833                  0.33921246212616507
0.201667                  0.3371720623497032
0.2025                    0.3351416645916249
0.203333                  0.3331188188488239
0.204167                  0.33110111544751997
0.205                     0.3290933957216409
0.205833                  0.32709323615778957
0.206667                  0.3250982536151834
0.2075                    0.3231132342297283
0.208333                  0.32113578101846957
0.209167                  0.31916353740405345
0.21                      0.3172012342907186
0.210833                  0.315246501259785
0.211667                  0.31329700831955687
0.2125                    0.31135743112452413
0.213333                  0.3094254258460138
0.214167                  0.30749868909303196
0.215                     0.30558184126673066
0.215833                  0.30367256514717206
0.216667                  0.30176858395093875
0.2175                    0.29987446283772706
0.218333                  0.2979879112067816
0.219167                  0.2961066788826159
0.22                      0.2942352758090926
0.220833                  0.2923714380082176
0.221667                  0.29051294190529225
0.2225                    0.2886642422684328
0.223333                  0.2868231017385124
0.224167                  0.2849873233275871
0.225                     0.2831613066818055
0.225833                  0.28134284105037594
0.226667                  0.2795297560104031
0.2275                    0.27772639615444233
0.228333                  0.2759305773216739
0.229167                  0.2741401556264045
0.23                      0.2723594206888622
0.230833                  0.2705862149133922
0.231667                  0.2688184209165639
0.2325                    0.2670602734411927
0.233333                  0.2653096414249469
0.234167                  0.2635644339451504
0.235                     0.2618288309751687
0.235833                  0.2601007279476505
0.236667                  0.2583780603523279
0.2375                    0.2566649535142001
0.238333                  0.2549593293158988
0.239167                  0.25325914960463997
0.24                      0.25156848519117053
0.240833                  0.2498852843561478
0.241667                  0.24820753524342007
0.2425                    0.24653925429587428
0.243333                  0.24487841613392222
0.244167                  0.2432230351309542
0.245                     0.24157707352049257
0.245833                  0.23993853219866387
0.246667                  0.23830545169426168
0.2475                    0.23668174020308205
0.248333                  0.2350654248258673
0.249167                  0.23345457216734794
0.25                      0.2318530365684946
0.250833                  0.2302588712576687
0.251667                  0.22867016883034244
0.2525                    0.2270907299670368
0.253333                  0.22551863394131755
0.254167                  0.22395199924708087
0.255                     0.22239457311158248
0.255833                  0.2208444607643562
0.256667                  0.2192998065006138
0.2575                    0.2177643043118104
0.258333                  0.2162360852891766
0.259167                  0.21471331942568708
0.26                      0.21319964770680738
0.260833                  0.21169322698400977
0.261667                  0.21019225284020487
0.2625                    0.20870031349435414
0.263333                  0.20721559145286517
0.264167                  0.20573630777325866
0.265                     0.20426599815988353
0.265833                  0.20280287066194402
0.266667                  0.20134517169207936
0.2675                    0.19989638470150117
0.268333                  0.19845474316523523
0.269167                  0.19701851872571102
0.27                      0.1955911428537914
0.270833                  0.19417087432689292
0.271667                  0.19275600988757488
0.2725                    0.19134992930852127
0.273333                  0.1899509165422048
0.274167                  0.1885572932948714
0.275                     0.18717238793455557
0.275833                  0.18579450945526543
0.276667                  0.18442200438652173
0.2775                    0.18305814999419534
0.278333                  0.18170128017584675
0.279167                  0.18034976613821213
0.28                      0.1790068343576579
0.280833                  0.17767084349181003
0.281667                  0.17634018927439857
0.2825                    0.17501804771568413
0.283333                  0.1737028020838256
0.284167                  0.17239287248413887
0.285                     0.17109138479173708
0.285833                  0.16979674673328402
0.286667                  0.16850740262462502
0.2875                    0.16722642854784497
0.288333                  0.16595225652899004
0.289167                  0.16468335493042596
0.29                      0.16342275039077964
0.290833                  0.1621688990735149
0.291667                  0.1609202932171138
0.2925                    0.15967991037683416
0.293333                  0.15844623068560146
0.294167                  0.15721777008429935
0.295                     0.1559974574127247
0.295833                  0.15478379660152622
0.296667                  0.1535753271154143
0.2975                    0.15237492945558528
0.298333                  0.151181131173866
0.299167                  0.14999249507591256
0.3                       0.14881185371002553
0.300833                  0.14763775806808796
0.301667                  0.14646879410952016
0.3025                    0.14530774682353087
0.303333                  0.14415319045695746
0.304167                  0.14300373393167254
0.305                     0.14186211507961918
0.305833                  0.14072693121336685
0.306667                  0.1395968140213423
0.3075                    0.13847445458885335
0.308333                  0.1373584730999806
0.309167                  0.13624752381087105
0.31                      0.1351442514774919
0.310833                  0.13404729895827508
0.311667                  0.1329553428730913
0.3125                    0.1318709820747064
0.313333                  0.13079288189404364
0.314167                  0.12971974110713372
0.315                     0.12865411309724067
0.315833                  0.1275946854616829
0.316667                  0.12654017892182354
0.3175                    0.12549310183180168
0.318333                  0.12445216384634156
0.319167                  0.12341610741663457
0.32                      0.12238739631625178
0.320833                  0.12136476204364689
0.321667                  0.1203469685614828
0.3225                    0.11933643551780136
0.323333                  0.11833191603800146
0.324167                  0.11733219537364331
0.325                     0.11633964950982661
0.325833                  0.11535305297817672
0.326667                  0.11437121209316103
0.3275                    0.11339645964652309
0.328333                  0.11242759135139367
0.329167                  0.11146343435631187
0.33                      0.11050627873518518
0.330833                  0.1095549411554755
0.331667                  0.10860826936648148
0.3325                    0.10766851120748468
0.333333                  0.10673450406852984
0.334167                  0.10580511606406799
0.335                     0.10488255328756443
0.335833                  0.10396567361738436
0.336667                  0.10305336529347181
0.3375                    0.10214779315921925
0.338333                  0.10124783534340542
0.339167                  0.10035239996879852
0.34                      0.09946361113063708
0.340833                  0.09858036696680736
0.341667                  0.09770159523740904
0.3425                    0.09682937979724256
0.343333                  0.09596263854913625
0.344167                  0.09510031864163855
0.345                     0.09424446420300349
0.345833                  0.09339401265361254
0.346667                  0.09254793027858921
0.3475                    0.09170822199954198
0.348333                  0.09087384450371006
0.349167                  0.09004378295832048
0.35                      0.08922000360345696
0.350833                  0.08840148214013518
0.351667                  0.08758722235973797
0.3525                    0.08677915235210434
0.353333                  0.08597626657551664
0.354167                  0.0851775871852054
0.355                     0.08438500465720014
0.355833                  0.08359753194776869
0.356667                  0.08281420931303228
0.3575                    0.08203689015676982
0.358333                  0.08126460567164172
0.359167                  0.08049641394823047
0.36                      0.07973413186572172
0.360833                  0.07897680858790543
0.361667                  0.07822351977187117
0.3625                    0.07747604632386985
0.363333                  0.07673345511194013
0.364167                  0.07599483908808607
0.365                     0.07526194374322322
0.365833                  0.0745338533793959
0.366667                  0.07380967797006739
0.3675                    0.07309112815273236
0.368333                  0.07237730539106543
0.369167                  0.0716673364038517
0.37                      0.07096289754198412
0.370833                  0.07026310715574645
0.371667                  0.06956710843072468
0.3725                    0.06887654400285512
0.373333                  0.06819054883147307
0.374167                  0.06750828228811483
0.375                     0.06683135386976839
0.375833                  0.06615891486513983
0.376667                  0.06549014054852502
0.3775                    0.0648266078583919
0.378333                  0.06416748413068622
0.379167                  0.06351196025703797
0.38                      0.06286158120248286
0.380833                  0.06221553006548176
0.381667                  0.061573013067712457
0.3825                    0.06093554378944721
0.383333                  0.06030232080551445
0.384167                  0.05967256537752466
0.385                     0.05904776029450362
0.385833                  0.058427119318587066
0.386667                  0.05780987845974203
0.3875                    0.0571974903128761
0.388333                  0.05658918353652294
0.389167                  0.05598420859532823
0.39                      0.055383988490962974
0.390833                  0.05478776648570014
0.391667                  0.0541948072028898
0.3925                    0.05360650465602723
0.393333                  0.0530221164160658
0.394167                  0.0524409209675009
0.395                     0.051864283944135094
0.395833                  0.051291476928878636
0.396667                  0.05072179196773936
0.3975                    0.05015656692707695
0.398333                  0.049595087103025556
0.399167                  0.04903665780170125
0.4                       0.04848258973782765
0.400833                  0.04793218162001616
0.401667                  0.047384751711586987
0.4025                    0.046841584194487335
0.403333                  0.0463019908877163
0.404167                  0.04576530270673626
0.405                     0.04523277792332672
0.405833                  0.044703741162585
0.406667                  0.044177535685806346
0.4075                    0.04365539448006415
0.408333                  0.04313665467092641
0.409167                  0.042620671557283184
0.41                      0.04210865347030603
0.410833                  0.04159994972863296
0.411667                  0.04109392735901463
0.4125                    0.04059177066856646
0.413333                  0.04009284085985072
0.414167                  0.03959651637650995
0.415                     0.03910395813605913
0.415833                  0.03861453891462913
0.416667                  0.0381276482599464
0.4175                    0.03764442433754105
0.418333                  0.03716425118506938
0.419167                  0.03668652914020514
0.42                      0.03621237425684289
0.420833                  0.03574118152059191
0.421667                  0.035272361743742556
0.4225                    0.03480700951132022
0.423333                  0.03434453044216321
0.424167                  0.03388434550626546
0.425                     0.03342752846535431
0.425833                  0.03297349525521975
0.426667                  0.032521676685541206
0.4275                    0.032073126342666146
0.428333                  0.03162727016179474
0.429167                  0.03118354847306427
0.43                      0.03074299533767532
0.430833                  0.03030504637159218
0.431667                  0.029869151104747638
0.4325                    0.029436324726006144
0.433333                  0.029006012211934534
0.434167                  0.028577671970775577
0.435                     0.028152300973757736
0.435833                  0.027729353237051335
0.436667                  0.027308295724307114
0.4375                    0.026890107846211285
0.438333                  0.026474252336167126
0.439167                  0.026060204389524715
0.44                      0.0256489265153428
0.440833                  0.025239889840982827
0.441667                  0.02483257746860766
0.4425                    0.024427935666676923
0.443333                  0.02402544363210494
0.444167                  0.023624592048046147
0.445                     0.023226311605244902
0.445833                  0.02283008924475332
0.446667                  0.0224354229040364
0.4475                    0.022043228360729278
0.448333                  0.021652999973723046
0.449167                  0.021264242607166695
0.45                      0.020877857791925254
0.450833                  0.020493346977526847
0.451667                  0.02011022162630259
0.4525                    0.01972936969041752
0.453333                  0.019350299381834697
0.454167                  0.01897252843191475
0.455                     0.0185969318835288
0.455833                  0.018223024382299877
0.456667                  0.01785032959847937
0.4575                    0.017479710336741092
0.458333                  0.01711068734659441
0.459167                  0.016742789906500903
0.46                      0.016376869255308377
0.460833                  0.016012451915968222
0.461667                  0.015649072443781158
0.4625                    0.01528757118539442
0.463333                  0.014927480106157437
0.464167                  0.014568338706098458
0.465                     0.014210977114637246
0.465833                  0.013854932407700023
0.466667                  0.01349974869745214
0.4675                    0.013146246572108104
0.468333                  0.012793967885823251
0.469167                  0.012442461029671977
0.47                      0.01209253772784432
0.470833                  0.011743744279735844
0.471667                  0.011395633021655154
0.4725                    0.011049007491866053
0.473333                  0.010703418101549133
0.474167                  0.010358420798072253
0.475                     0.010014811612803909
0.475833                  0.009672144734741777
0.476667                  0.00932997938771047
0.4775                    0.00898910477607859
0.478333                  0.008649078532226784
0.479167                  0.008309462821448994
0.48                      0.007971040701746278
0.480833                  0.007633372914066892
0.481667                  0.007296024229837093
0.4825                    0.006959772241998267
0.483333                  0.006624180464888732
0.484167                  0.006288815940397655
0.485                     0.005954451478359971
0.485833                  0.005620653030955837
0.486667                  0.005286989574654843
0.4875                    0.004954229818604072
0.488333                  0.004621941817053759
0.489167                  0.004289696144877963
0.49                      0.003958258093474636
0.490833                  0.0036271974830899677
0.491667                  0.0032960861506657517
0.4925                    0.0029656866531101223
0.493333                  0.0026355702401854347
0.494167                  0.0023053096730251423
0.495                     0.0019756654483184966
0.495833                  0.001646209850143712
0.496667                  0.0013165158636005026
0.4975                    9.873406834281673E-4
0.498333                  6.582519465586724E-4
0.499167                  3.288769848091909E-4
0.5                       -1.0953804024134211E-17
