
0                         1.0000314791169371
8.33E-4                   0.993117668476821
0.001667                  0.9858705347270694
0.0025                    0.9783340260095726
0.003333                  0.9705085219155221
0.004167                  0.9623897685370182
0.005                     0.954004334126073
0.005833                  0.9453497149670094
0.006667                  0.9364221088995094
0.0075                    0.9272500350727262
0.008333                  0.9178301060360154
0.009167                  0.9081576544491541
0.01                      0.8982629999865274
0.010833                  0.8881418448254083
0.011667                  0.8777887164850401
0.0125                    0.8672355513317169
0.013333                  0.8564771936557867
0.014167                  0.845507417189104
0.015                     0.8343595968160027
0.015833                  0.8230277715120127
0.016667                  0.8115050134696983
0.0175                    0.7998259598462751
0.018333                  0.7879838976600958
0.019167                  0.7759712502187313
0.02                      0.7638237432543072
0.020833                  0.7515339657316046
0.021667                  0.739093744934366
0.0225                    0.7265397245349563
0.023333                  0.7138638496803534
0.024167                  0.701057404502374
0.025                     0.6881577835273957
0.025833                  0.6751563424463078
0.026667                  0.6620438749328086
0.0275                    0.6488583632829568
0.028333                  0.6355906280206047
0.029167                  0.6222310246965463
0.03                      0.6088179647150435
0.030833                  0.5953417874590673
0.031667                  0.5817924621609487
0.0325                    0.5682086754832366
0.033333                  0.5545803392490122
0.034167                  0.5408970874829958
0.035                     0.5271977334229925
0.035833                  0.5134718142955095
0.036667                  0.4997086791802413
0.0375                    0.4859471246976219
0.038333                  0.47217636565895543
0.039167                  0.45838551546850054
0.04                      0.4446132167174682
0.040833                  0.4308484130471675
0.041667                  0.41708003032701596
0.0425                    0.4033464257466673
0.043333                  0.38963632194115694
0.044167                  0.37593850413060215
0.045                     0.3622909189966083
0.045833                  0.3486821171151542
0.046667                  0.33510078857035624
0.0475                    0.32158435089090237
0.048333                  0.30812123019809634
0.049167                  0.294700065474659
0.05                      0.2813576330767453
0.050833                  0.2680822808174691
0.051667                  0.25486263903569456
0.0525                    0.24173473765549935
0.053333                  0.22868689076387191
0.054167                  0.2157077608486081
0.055                     0.20283253300667073
0.055833                  0.19004953052067594
0.056667                  0.17734748707631062
0.0575                    0.1647606514893506
0.058333                  0.15227739741272847
0.059167                  0.13988656696623425
0.06                      0.1276213882193103
0.060833                  0.11547032454632844
0.061667                  0.1034223618643281
0.0625                    0.09150963004191581
0.063333                  0.07972071963510696
0.064167                  0.06804479379725183
0.065                     0.056512813747921074
0.065833                  0.0451135327362885
0.066667                  0.033836322625044095
0.0675                    0.022710912513483252
0.068333                  0.011726251858328865
0.069167                  8.719507049723093E-4
0.07                      -0.009823550514484969
0.070833                  -0.02037107465805727
0.071667                  -0.030780746048822145
0.0725                    -0.04102546262009217
0.073333                  -0.05111579013409502
0.074167                  -0.0610615618749508
0.075                     -0.07083705708750367
0.075833                  -0.08045255711716476
0.076667                  -0.08991758085171454
0.0775                    -0.09920782515874565
0.078333                  -0.10833326174889153
0.079167                  -0.11730307380737728
0.08                      -0.12609440563707047
0.080833                  -0.13471689620434119
0.081667                  -0.1431793737310271
0.0825                    -0.15146045342232947
0.083333                  -0.15956942049782183
0.084167                  -0.16751473098668865
0.085                     -0.17527648828884956
0.085833                  -0.1828636049715196
0.086667                  -0.1902841496541191
0.0875                    -0.1975197252338735
0.088333                  -0.20457885480099633
0.089167                  -0.2114692063332482
0.09                      -0.21817388773814195
0.090833                  -0.22470101786097044
0.091667                  -0.23105785275974355
0.0925                    -0.2372290052865909
0.093333                  -0.2432221773021533
0.094167                  -0.24904420358122561
0.095                     -0.2546811965009312
0.095833                  -0.26014043018870614
0.096667                  -0.26542831064520633
0.0975                    -0.2705324392314048
0.098333                  -0.2754596535439446
0.099167                  -0.28021592514146276
0.1                       -0.28479032894993206
0.100833                  -0.289189259140615
0.101667                  -0.2934182489337611
0.1025                    -0.2974678267727647
0.103333                  -0.30134393836153717
0.104167                  -0.30505167639884845
0.105                     -0.30858299842717307
0.105833                  -0.3119433984364179
0.106667                  -0.3151375280742417
0.1075                    -0.3181587454542266
0.108333                  -0.32101209134154757
0.109167                  -0.32370177739149397
0.11                      -0.3262225299181102
0.110833                  -0.32857893662218773
0.111667                  -0.3307747717471438
0.1125                    -0.332806093862834
0.113333                  -0.33467703937041315
0.114167                  -0.33639094913256845
0.115                     -0.33794517472863334
0.115833                  -0.33934340455770073
0.116667                  -0.34058855151227785
0.1175                    -0.34167921790414574
0.118333                  -0.342618648888753
0.119167                  -0.3434093361028839
0.12                      -0.3440510875560812
0.120833                  -0.34454671130333575
0.121667                  -0.3448982856682831
0.1225                    -0.3451067768368699
0.123333                  -0.3451745632142042
0.124167                  -0.3451033189042809
0.125                     -0.3448951185301078
0.125833                  -0.3445519195264943
0.126667                  -0.3440750019432725
0.1275                    -0.34346749714996816
0.128333                  -0.3427309514390365
0.129167                  -0.3418662619648702
0.13                      -0.3408775634641233
0.130833                  -0.33976600198244666
0.131667                  -0.33853210385105126
0.1325                    -0.33718095236360607
0.133333                  -0.3357133052006216
0.134167                  -0.3341293307761816
0.135                     -0.332435004953351
0.135833                  -0.33063070983316084
0.136667                  -0.32871626957375505
0.1375                    -0.3266984956882731
0.138333                  -0.32457740830699217
0.139167                  -0.3223525016685615
0.14                      -0.3200313653271227
0.140833                  -0.3176136717916621
0.141667                  -0.31509860031552034
0.1425                    -0.3124944604275601
0.143333                  -0.3098005920250305
0.144167                  -0.30701587483107073
0.145                     -0.30414928005078506
0.145833                  -0.30119983056027666
0.146667                  -0.2981661224518136
0.1475                    -0.2950577302941392
0.148333                  -0.2918733760343061
0.149167                  -0.28861138840349226
0.15                      -0.28528188721571224
0.150833                  -0.2818833100051945
0.151667                  -0.27841373470969694
0.1525                    -0.2748837686634914
0.153333                  -0.27129158185347313
0.154167                  -0.26763501821749613
0.155                     -0.26392511546995534
0.155833                  -0.26015979318958077
0.156667                  -0.25633667826659023
0.1575                    -0.2524671824190271
0.158333                  -0.24854899215983536
0.159167                  -0.2445795343747046
0.16                      -0.24057053934408912
0.160833                  -0.23651947799006895
0.161667                  -0.23242359426409917
0.1625                    -0.22829488266278777
0.163333                  -0.22413061605798087
0.164167                  -0.21992787250188267
0.165                     -0.21569885760674798
0.165833                  -0.21144066373457257
0.166667                  -0.2071502199798704
0.1675                    -0.20283989135418934
0.168333                  -0.19850660718838428
0.169167                  -0.19414716441014676
0.17                      -0.18977403722776026
0.170833                  -0.18538400929775392
0.171667                  -0.18097376196795667
0.1725                    -0.176555830072537
0.173333                  -0.17212686877230268
0.174167                  -0.16768346016698493
0.175                     -0.16323815288581492
0.175833                  -0.15878749053961483
0.176667                  -0.15432797200964732
0.1775                    -0.14987211472576284
0.178333                  -0.14541636741157885
0.179167                  -0.14095716141183573
0.18                      -0.13650693988634277
0.180833                  -0.1320620730028619
0.181667                  -0.12761893986265418
0.1825                    -0.1231898682843926
0.183333                  -0.11877116583570974
0.184167                  -0.11435917423945945
0.185                     -0.10996606696802448
0.185833                  -0.10558810452721037
0.186667                  -0.10122160566315085
0.1875                    -0.09687855261869266
0.188333                  -0.09255517392013032
0.189167                  -0.08824777924291974
0.19                      -0.0839681248849595
0.190833                  -0.07971242198438647
0.191667                  -0.07547698452676992
0.1925                    -0.07127331035408693
0.193333                  -0.06709760728468574
0.194167                  -0.06294620644331228
0.195                     -0.058830316936799625
0.195833                  -0.05474615677992841
0.196667                  -0.050690086491062374
0.1975                    -0.04667299841204605
0.198333                  -0.04269113369274676
0.199167                  -0.03874089390435041
0.2                       -0.03483282885274697
0.200833                  -0.030963215161116175
0.201667                  -0.027128506500270128
0.2025                    -0.023338886628628784
0.203333                  -0.019590679360992562
0.204167                  -0.015880400887727877
0.205                     -0.012217847660209445
0.205833                  -0.008599401766892174
0.206667                  -0.005021651698867396
0.2075                    -0.0014939875779957773
0.208333                  0.001987139802029759
0.209167                  0.005425060515307399
0.21                      0.008810807578133559
0.210833                  0.012147851720563664
0.211667                  0.015439433101488115
0.2125                    0.01867702249951768
0.213333                  0.021864003066255147
0.214167                  0.025003517222179437
0.215                     0.028087485984296577
0.215833                  0.03111919649764623
0.216667                  0.03410168627920242
0.2175                    0.037027336955251185
0.218333                  0.03989933191260589
0.219167                  0.042720597256721865
0.22                      0.04548398353711471
0.220833                  0.04819256330744687
0.221667                  0.05084914540691163
0.2225                    0.053447055619433026
0.223333                  0.055989249264830995
0.224167                  0.05847841270891246
0.225                     0.06090835133725834
0.225833                  0.06328189750495983
0.226667                  0.06560161053671164
0.2275                    0.06786177790708864
0.228333                  0.07006510393808964
0.229167                  0.0722140169755906
0.23                      0.07430328725800874
0.230833                  0.07633548665977051
0.231667                  0.07831290922822258
0.2325                    0.08023080689992718
0.233333                  0.08209161533000192
0.234167                  0.08389749155222674
0.235                     0.08564416646996113
0.235833                  0.0873339363774237
0.236667                  0.0889688191692166
0.2375                    0.09054502039668666
0.238333                  0.09206469446698735
0.239167                  0.09352971858289656
0.24                      0.09493676711812735
0.240833                  0.09628785066572774
0.241667                  0.0975847047392453
0.2425                    0.09882446528487476
0.243333                  0.10000899773623534
0.244167                  0.10113989545611064
0.245                     0.10221474737365381
0.245833                  0.10323527298063556
0.246667                  0.10420292354266383
0.2475                    0.10511573112925586
0.248333                  0.10597526904989522
0.249167                  0.10678284702121325
0.25                      0.10753692924359166
0.250833                  0.10823894312511373
0.251667                  0.10889005785348088
0.2525                    0.10948915767190964
0.253333                  0.11003752486665698
0.254167                  0.11053618956503009
0.255                     0.11098444297477598
0.255833                  0.11138342351515944
0.256667                  0.11173402414732772
0.2575                    0.11203592906221622
0.258333                  0.1122901345188147
0.259167                  0.11249739860692026
0.26                      0.11265778370528405
0.260833                  0.11277214604538162
0.261667                  0.11284111151753269
0.2625                    0.11286510516473111
0.263333                  0.11284484572637354
0.264167                  0.11278082991548026
0.265                     0.11267382927518758
0.265833                  0.11252442796392964
0.266667                  0.11233299686631582
0.2675                    0.11210063730480627
0.268333                  0.11182780211864031
0.269167                  0.11151474001347826
0.27                      0.11116286489811647
0.270833                  0.11077250187820306
0.271667                  0.11034378140572043
0.2725                    0.10987841239173178
0.273333                  0.10937659609289356
0.274167                  0.10883834888202072
0.275                     0.10826565677829064
0.275833                  0.1076586013456617
0.276667                  0.10701708927783454
0.2775                    0.1063433655745132
0.278333                  0.10563739650984355
0.279167                  0.10489898369813894
0.28                      0.10413061283515193
0.280833                  0.10333213952799396
0.281667                  0.10250326508715718
0.2825                    0.10164669753524236
0.283333                  0.1007621866302941
0.284167                  0.099849338305729
0.285                     0.09891106452729831
0.285833                  0.09794701419227506
0.286667                  0.09695670291073559
0.2875                    0.09594322826182311
0.288333                  0.09490614341442849
0.289167                  0.09384487881451214
0.29                      0.09276269944131701
0.290833                  0.09165906798982339
0.291667                  0.09053333498193383
0.2925                    0.0893889147633687
0.293333                  0.08822518490628528
0.294167                  0.08704142130931289
0.295                     0.08584116988722695
0.295833                  0.08462372851539071
0.296667                  0.0833883038085543
0.2975                    0.08213855574484126
0.298333                  0.08087370798095313
0.299167                  0.07959290320561332
0.3                       0.07829989829773534
0.300833                  0.07699384820413602
0.301667                  0.07567383704432563
0.3025                    0.07434370182610497
0.303333                  0.07300253430559281
0.304167                  0.07164936537002949
0.305                     0.07028809581949914
0.305833                  0.06891775972897356
0.306667                  0.06753734005249057
0.3075                    0.06615078552247687
0.308333                  0.0647570780133648
0.309167                  0.06335515779096101
0.31                      0.06194900617328196
0.310833                  0.060537558268811374
0.311667                  0.05911971682894202
0.3125                    0.057699480958740675
0.313333                  0.05627574437141643
0.314167                  0.05484737739231811
0.315                     0.053418382693089905
0.315833                  0.05198761788262269
0.316667                  0.050553925849087786
0.3175                    0.049121299215073765
0.318333                  0.0476885646817056
0.319167                  0.04625454257578053
0.32                      0.044823202484106074
0.320833                  0.043393345287507976
0.321667                  0.04196377350265987
0.3225                    0.04053842134238069
0.323333                  0.03911606883302845
0.324167                  0.037695505296313755
0.325                     0.036280617898551075
0.325833                  0.03487017064350399
0.326667                  0.03346294412717263
0.3275                    0.032062767475897404
0.328333                  0.030668393357793644
0.329167                  0.02927859795747905
0.33                      0.02789714205705135
0.330833                  0.026522771521339823
0.331667                  0.025154262274519536
0.3325                    0.023795297147021777
0.333333                  0.022444619568741827
0.334167                  0.021101009184293945
0.335                     0.019768061965672233
0.335833                  0.018444523104660483
0.336667                  0.017129179770593677
0.3375                    0.015825532872543364
0.338333                  0.014532333382256714
0.339167                  0.013248379616471679
0.34                      0.011977069917510562
0.340833                  0.010717164870537796
0.341667                  0.009467477376422857
0.3425                    0.008231296403447604
0.343333                  0.007007395794029214
0.344167                  0.005794606280499327
0.345                     0.004596101339681607
0.345833                  0.0034106715213643585
0.346667                  0.0022371684447702826
0.3475                    0.0010786446585626397
0.348333                  -6.608932682433009E-5
0.349167                  -0.001198158143494191
0.35                      -0.002314634938289033
0.350833                  -0.003416686186039553
0.351667                  -0.004505410102843036
0.3525                    -0.005578009642689921
0.353333                  -0.006635625412119403
0.354167                  -0.0076793267385336685
0.355                     -0.008706449854536403
0.355833                  -0.009718106845978269
0.356667                  -0.0107153358728908
0.3575                    -0.011695609295221343
0.358333                  -0.0126600082267578
0.359167                  -0.013609537574107815
0.36                      -0.014541808069832358
0.360833                  -0.015457867604342309
0.361667                  -0.01635868593523672
0.3625                    -0.017242013830436984
0.363333                  -0.018108863903983478
0.364167                  -0.018960169057018073
0.365                     -0.01979382119492514
0.365833                  -0.020610795798487503
0.366667                  -0.021411987389722005
0.3675                    -0.022195429576622665
0.368333                  -0.022962059043001866
0.369167                  -0.023712730590020024
0.37                      -0.024445619581185275
0.370833                  -0.025161622429153388
0.371667                  -0.0258615530491781
0.3725                    -0.026543728126676235
0.373333                  -0.027209002514369612
0.374167                  -0.027858148248511103
0.375                     -0.02848962244267797
0.375833                  -0.029104237281858795
0.376667                  -0.02970272209694054
0.3775                    -0.03028367310308627
0.378333                  -0.03084785888546061
0.379167                  -0.031395965404426456
0.38                      -0.03192672624534692
0.380833                  -0.03244086563158181
0.381667                  -0.03293902564326817
0.3825                    -0.03342007512750392
0.383333                  -0.03388469334869059
0.384167                  -0.034333478145752376
0.385                     -0.03476543117128055
0.385833                  -0.03518118629133411
0.386667                  -0.035581296885611964
0.3875                    -0.03596489463628556
0.388333                  -0.036332567723491235
0.389167                  -0.03668482498563527
0.39                      -0.03702092506773704
0.390833                  -0.03734141032156477
0.391667                  -0.037646745091026945
0.3925                    -0.03793631165552833
0.393333                  -0.03821060653365944
0.394167                  -0.03847004974408487
0.395                     -0.03871414363824769
0.395833                  -0.03894333902785258
0.396667                  -0.039158011890357204
0.3975                    -0.039357780881727235
0.398333                  -0.03954305135646442
0.399167                  -0.03971415564283883
0.4                       -0.03987082475613597
0.400833                  -0.04001341895938914
0.401667                  -0.040142227424668935
0.4025                    -0.040257089430529136
0.403333                  -0.04035832062344483
0.404167                  -0.04044616760549048
0.405                     -0.04052057369880788
0.405833                  -0.04058181050918873
0.406667                  -0.0406300827417419
0.4075                    -0.040665433444009205
0.408333                  -0.040688090851245376
0.409167                  -0.04069821852379433
0.41                      -0.04069595484337243
0.410833                  -0.040681485431335096
0.411667                  -0.04065493352806169
0.4125                    -0.0406165284090561
0.413333                  -0.04056641391763954
0.414167                  -0.04050467386501176
0.415                     -0.040431623953704574
0.415833                  -0.04034736715738133
0.416667                  -0.0402519488076344
0.4175                    -0.04014576656350911
0.418333                  -0.04002888350242684
0.419167                  -0.039901307478694026
0.42                      -0.039763513654209916
0.420833                  -0.03961552624188504
0.421667                  -0.039457316667705085
0.4225                    -0.03928943317910392
0.423333                  -0.03911186220825627
0.424167                  -0.038924539841988536
0.425                     -0.0387280830513006
0.425833                  -0.0385224416165656
0.426667                  -0.038307517409539575
0.4275                    -0.03808399183500353
0.428333                  -0.03785177918972951
0.429167                  -0.037610748283803994
0.43                      -0.03736164075416063
0.430833                  -0.037104336615683645
0.431667                  -0.036838672794007085
0.4325                    -0.03656544705972221
0.433333                  -0.03628450637491148
0.434167                  -0.03599565697758467
0.435                     -0.035699748789117025
0.435833                  -0.03539659697068253
0.436667                  -0.0350859782837874
0.4375                    -0.03476879094585286
0.438333                  -0.03444481958615823
0.439167                  -0.0341138127115563
0.44                      -0.033776713118726
0.440833                  -0.03343327618701389
0.441667                  -0.03308322339679125
0.4425                    -0.03272753855460759
0.443333                  -0.032365949080096934
0.444167                  -0.031998150658338706
0.445                     -0.03162516469110008
0.445833                  -0.031246691932897492
0.446667                  -0.030862403504507106
0.4475                    -0.030473355149124606
0.448333                  -0.030079222251533276
0.449167                  -0.029679652595968668
0.45                      -0.029275733178987868
0.450833                  -0.02886711530843974
0.451667                  -0.028453424654028215
0.4525                    -0.02803577654683063
0.453333                  -0.027613799504808894
0.454167                  -0.027187098297444767
0.455                     -0.026756813842304147
0.455833                  -0.026322553146668808
0.456667                  -0.02588390128402588
0.4575                    -0.02544202218248731
0.458333                  -0.0249965026071137
0.459167                  -0.02454690912855508
0.46                      -0.02409442628053843
0.460833                  -0.02363862184208541
0.461667                  -0.02317904506161507
0.4625                    -0.022716898842759924
0.463333                  -0.022251733220844238
0.464167                  -0.021783081289099247
0.465                     -0.02131216225169631
0.465833                  -0.020838509627215795
0.466667                  -0.02036164150688541
0.4675                    -0.019882791487813935
0.468333                  -0.019401477782746007
0.469167                  -0.01891720461965323
0.47                      -0.018431218237604515
0.470833                  -0.017943022737524995
0.471667                  -0.01745210960862563
0.4725                    -0.01695973613088541
0.473333                  -0.016465393470386093
0.474167                  -0.01596856148792852
0.475                     -0.015470507045932634
0.475833                  -0.014970709535393673
0.476667                  -0.014468638285445028
0.4775                    -0.013965568416642555
0.478333                  -0.01346096868766214
0.479167                  -0.012954298979818717
0.48                      -0.012446841472292329
0.480833                  -0.011938055417744236
0.481667                  -0.011427392321550024
0.4825                    -0.010916140336706362
0.483333                  -0.010403750320359782
0.484167                  -0.009889666462952083
0.485                     -0.009375181910401383
0.485833                  -0.008859740219895607
0.486667                  -0.008342779318461325
0.4875                    -0.007825596456317252
0.488333                  -0.007307628972532813
0.489167                  -0.006788309574055154
0.49                      -0.0062689388071017664
0.490833                  -0.005748948861919373
0.491667                  -0.0052277682621881556
0.4925                    -0.004706700109367635
0.493333                  -0.004185172502969742
0.494167                  -0.0036626108130484287
0.495                     -0.0031403200059746243
0.495833                  -0.0026177251132502737
0.496667                  -0.002094249506637306
0.4975                    -0.0015712009035151822
0.498333                  -0.0010480155828689003
0.499167                  -5.241421700513231E-4
0.5                       1.7457441161039773E-17
