[Info]
Version 1
Dimension 3
NumNodes 216
Num3DElements 125
Num2DElements 0
Num1DElements 0
NumNodeBC 218
NumSaveNodes 0
NumSaveElements 2
Num 2d-line      : 0
Num 2d-line,quad : 0
Num 3d-line      : 0
Num 3d-line,quad : 0
Num triangle     : 0
Num triangle,quad: 0
Num quadr        : 0
Num quadr,quad   : 0
Num tetra        : 0
Num tetra,quad   : 0
Num brick        : 125
Num brick,quad   : 0
Num pyramid      : 0
Num pyramid,quad : 0
Num wedge        : 0
Num wedge,quad   : 0

[Nodes]
#NodeNr x-coord y-coord z-coord
1  0.0  0.0  0.0
2  0.2  0.0  0.0
3  0.4  0.0  0.0
4  0.6  0.0  0.0
5  0.8  0.0  0.0
6  1.0  0.0  0.0
7  0.0  0.2  0.0
8  0.2  0.2  0.0
9  0.4  0.2  0.0
10  0.6  0.2  0.0
11  0.8  0.2  0.0
12  1.0  0.2  0.0
13  0.0  0.4  0.0
14  0.2  0.4  0.0
15  0.4  0.4  0.0
16  0.6  0.4  0.0
17  0.8  0.4  0.0
18  1.0  0.4  0.0
19  0.0  0.6  0.0
20  0.2  0.6  0.0
21  0.4  0.6  0.0
22  0.6  0.6  0.0
23  0.8  0.6  0.0
24  1.0  0.6  0.0
25  0.0  0.8  0.0
26  0.2  0.8  0.0
27  0.4  0.8  0.0
28  0.6  0.8  0.0
29  0.8  0.8  0.0
30  1.0  0.8  0.0
31  0.0  1.0  0.0
32  0.2  1.0  0.0
33  0.4  1.0  0.0
34  0.6  1.0  0.0
35  0.8  1.0  0.0
36  1.0  1.0  0.0
37  0.0  0.0  0.2
38  0.2  0.0  0.2
39  0.4  0.0  0.2
40  0.6  0.0  0.2
41  0.8  0.0  0.2
42  1.0  0.0  0.2
43  0.0  0.2  0.2
44  0.2  0.2  0.2
45  0.4  0.2  0.2
46  0.6  0.2  0.2
47  0.8  0.2  0.2
48  1.0  0.2  0.2
49  0.0  0.4  0.2
50  0.2  0.4  0.2
51  0.4  0.4  0.2
52  0.6  0.4  0.2
53  0.8  0.4  0.2
54  1.0  0.4  0.2
55  0.0  0.6  0.2
56  0.2  0.6  0.2
57  0.4  0.6  0.2
58  0.6  0.6  0.2
59  0.8  0.6  0.2
60  1.0  0.6  0.2
61  0.0  0.8  0.2
62  0.2  0.8  0.2
63  0.4  0.8  0.2
64  0.6  0.8  0.2
65  0.8  0.8  0.2
66  1.0  0.8  0.2
67  0.0  1.0  0.2
68  0.2  1.0  0.2
69  0.4  1.0  0.2
70  0.6  1.0  0.2
71  0.8  1.0  0.2
72  1.0  1.0  0.2
73  0.0  0.0  0.4
74  0.2  0.0  0.4
75  0.4  0.0  0.4
76  0.6  0.0  0.4
77  0.8  0.0  0.4
78  1.0  0.0  0.4
79  0.0  0.2  0.4
80  0.2  0.2  0.4
81  0.4  0.2  0.4
82  0.6  0.2  0.4
83  0.8  0.2  0.4
84  1.0  0.2  0.4
85  0.0  0.4  0.4
86  0.2  0.4  0.4
87  0.4  0.4  0.4
88  0.6  0.4  0.4
89  0.8  0.4  0.4
90  1.0  0.4  0.4
91  0.0  0.6  0.4
92  0.2  0.6  0.4
93  0.4  0.6  0.4
94  0.6  0.6  0.4
95  0.8  0.6  0.4
96  1.0  0.6  0.4
97  0.0  0.8  0.4
98  0.2  0.8  0.4
99  0.4  0.8  0.4
100  0.6  0.8  0.4
101  0.8  0.8  0.4
102  1.0  0.8  0.4
103  0.0  1.0  0.4
104  0.2  1.0  0.4
105  0.4  1.0  0.4
106  0.6  1.0  0.4
107  0.8  1.0  0.4
108  1.0  1.0  0.4
109  0.0  0.0  0.6
110  0.2  0.0  0.6
111  0.4  0.0  0.6
112  0.6  0.0  0.6
113  0.8  0.0  0.6
114  1.0  0.0  0.6
115  0.0  0.2  0.6
116  0.2  0.2  0.6
117  0.4  0.2  0.6
118  0.6  0.2  0.6
119  0.8  0.2  0.6
120  1.0  0.2  0.6
121  0.0  0.4  0.6
122  0.2  0.4  0.6
123  0.4  0.4  0.6
124  0.6  0.4  0.6
125  0.8  0.4  0.6
126  1.0  0.4  0.6
127  0.0  0.6  0.6
128  0.2  0.6  0.6
129  0.4  0.6  0.6
130  0.6  0.6  0.6
131  0.8  0.6  0.6
132  1.0  0.6  0.6
133  0.0  0.8  0.6
134  0.2  0.8  0.6
135  0.4  0.8  0.6
136  0.6  0.8  0.6
137  0.8  0.8  0.6
138  1.0  0.8  0.6
139  0.0  1.0  0.6
140  0.2  1.0  0.6
141  0.4  1.0  0.6
142  0.6  1.0  0.6
143  0.8  1.0  0.6
144  1.0  1.0  0.6
145  0.0  0.0  0.8
146  0.2  0.0  0.8
147  0.4  0.0  0.8
148  0.6  0.0  0.8
149  0.8  0.0  0.8
150  1.0  0.0  0.8
151  0.0  0.2  0.8
152  0.2  0.2  0.8
153  0.4  0.2  0.8
154  0.6  0.2  0.8
155  0.8  0.2  0.8
156  1.0  0.2  0.8
157  0.0  0.4  0.8
158  0.2  0.4  0.8
159  0.4  0.4  0.8
160  0.6  0.4  0.8
161  0.8  0.4  0.8
162  1.0  0.4  0.8
163  0.0  0.6  0.8
164  0.2  0.6  0.8
165  0.4  0.6  0.8
166  0.6  0.6  0.8
167  0.8  0.6  0.8
168  1.0  0.6  0.8
169  0.0  0.8  0.8
170  0.2  0.8  0.8
171  0.4  0.8  0.8
172  0.6  0.8  0.8
173  0.8  0.8  0.8
174  1.0  0.8  0.8
175  0.0  1.0  0.8
176  0.2  1.0  0.8
177  0.4  1.0  0.8
178  0.6  1.0  0.8
179  0.8  1.0  0.8
180  1.0  1.0  0.8
181  0.0  0.0  1.0
182  0.2  0.0  1.0
183  0.4  0.0  1.0
184  0.6  0.0  1.0
185  0.8  0.0  1.0
186  1.0  0.0  1.0
187  0.0  0.2  1.0
188  0.2  0.2  1.0
189  0.4  0.2  1.0
190  0.6  0.2  1.0
191  0.8  0.2  1.0
192  1.0  0.2  1.0
193  0.0  0.4  1.0
194  0.2  0.4  1.0
195  0.4  0.4  1.0
196  0.6  0.4  1.0
197  0.8  0.4  1.0
198  1.0  0.4  1.0
199  0.0  0.6  1.0
200  0.2  0.6  1.0
201  0.4  0.6  1.0
202  0.6  0.6  1.0
203  0.8  0.6  1.0
204  1.0  0.6  1.0
205  0.0  0.8  1.0
206  0.2  0.8  1.0
207  0.4  0.8  1.0
208  0.6  0.8  1.0
209  0.8  0.8  1.0
210  1.0  0.8  1.0
211  0.0  1.0  1.0
212  0.2  1.0  1.0
213  0.4  1.0  1.0
214  0.6  1.0  1.0
215  0.8  1.0  1.0
216  1.0  1.0  1.0

[1D Elements]
#ElemNr  ElemType  NrOfNodes  Level
#Node1 Node2 ... NodeNrOfNodes

[2D Elements]
#ElemNr  ElemType  NrOfNodes  Level
#Node1 Node2 ... NodeNrOfNodes

[3D Elements]
#ElemNr  ElemType  NrOfNodes  Level
#Node1 Node2 ... NodeNrOfNodes
1 10 8 boundary
7 8 44 43 1 2 38 37
2 10 8 boundary
8 9 45 44 2 3 39 38
3 10 8 boundary
9 10 46 45 3 4 40 39
4 10 8 boundary
10 11 47 46 4 5 41 40
5 10 8 boundary
11 12 48 47 5 6 42 41
6 10 8 boundary
13 14 50 49 7 8 44 43
7 10 8 boundary
14 15 51 50 8 9 45 44
8 10 8 boundary
15 16 52 51 9 10 46 45
9 10 8 boundary
16 17 53 52 10 11 47 46
10 10 8 boundary
17 18 54 53 11 12 48 47
11 10 8 boundary
19 20 56 55 13 14 50 49
12 10 8 boundary
20 21 57 56 14 15 51 50
13 10 8 boundary
21 22 58 57 15 16 52 51
14 10 8 boundary
22 23 59 58 16 17 53 52
15 10 8 boundary
23 24 60 59 17 18 54 53
16 10 8 boundary
25 26 62 61 19 20 56 55
17 10 8 boundary
26 27 63 62 20 21 57 56
18 10 8 boundary
27 28 64 63 21 22 58 57
19 10 8 boundary
28 29 65 64 22 23 59 58
20 10 8 boundary
29 30 66 65 23 24 60 59
21 10 8 boundary
31 32 68 67 25 26 62 61
22 10 8 boundary
32 33 69 68 26 27 63 62
23 10 8 boundary
33 34 70 69 27 28 64 63
24 10 8 boundary
34 35 71 70 28 29 65 64
25 10 8 boundary
35 36 72 71 29 30 66 65
26 10 8 boundary
43 44 80 79 37 38 74 73
27 10 8 boundary
44 45 81 80 38 39 75 74
28 10 8 boundary
45 46 82 81 39 40 76 75
29 10 8 boundary
46 47 83 82 40 41 77 76
30 10 8 boundary
47 48 84 83 41 42 78 77
31 10 8 boundary
49 50 86 85 43 44 80 79
32 10 8 design
50 51 87 86 44 45 81 80
33 10 8 design
51 52 88 87 45 46 82 81
34 10 8 design
52 53 89 88 46 47 83 82
35 10 8 boundary
53 54 90 89 47 48 84 83
36 10 8 boundary
55 56 92 91 49 50 86 85
37 10 8 design
56 57 93 92 50 51 87 86
38 10 8 design
57 58 94 93 51 52 88 87
39 10 8 design
58 59 95 94 52 53 89 88
40 10 8 boundary
59 60 96 95 53 54 90 89
41 10 8 boundary
61 62 98 97 55 56 92 91
42 10 8 design
62 63 99 98 56 57 93 92
43 10 8 design
63 64 100 99 57 58 94 93
44 10 8 design
64 65 101 100 58 59 95 94
45 10 8 boundary
65 66 102 101 59 60 96 95
46 10 8 boundary
67 68 104 103 61 62 98 97
47 10 8 boundary
68 69 105 104 62 63 99 98
48 10 8 boundary
69 70 106 105 63 64 100 99
49 10 8 boundary
70 71 107 106 64 65 101 100
50 10 8 boundary
71 72 108 107 65 66 102 101
51 10 8 boundary
79 80 116 115 73 74 110 109
52 10 8 boundary
80 81 117 116 74 75 111 110
53 10 8 boundary
81 82 118 117 75 76 112 111
54 10 8 boundary
82 83 119 118 76 77 113 112
55 10 8 boundary
83 84 120 119 77 78 114 113
56 10 8 boundary
85 86 122 121 79 80 116 115
57 10 8 design
86 87 123 122 80 81 117 116
58 10 8 design
87 88 124 123 81 82 118 117
59 10 8 design
88 89 125 124 82 83 119 118
60 10 8 boundary
89 90 126 125 83 84 120 119
61 10 8 boundary
91 92 128 127 85 86 122 121
62 10 8 design
92 93 129 128 86 87 123 122
63 10 8 design
93 94 130 129 87 88 124 123
64 10 8 design
94 95 131 130 88 89 125 124
65 10 8 boundary
95 96 132 131 89 90 126 125
66 10 8 boundary
97 98 134 133 91 92 128 127
67 10 8 design
98 99 135 134 92 93 129 128
68 10 8 design
99 100 136 135 93 94 130 129
69 10 8 design
100 101 137 136 94 95 131 130
70 10 8 boundary
101 102 138 137 95 96 132 131
71 10 8 boundary
103 104 140 139 97 98 134 133
72 10 8 boundary
104 105 141 140 98 99 135 134
73 10 8 boundary
105 106 142 141 99 100 136 135
74 10 8 boundary
106 107 143 142 100 101 137 136
75 10 8 boundary
107 108 144 143 101 102 138 137
76 10 8 boundary
115 116 152 151 109 110 146 145
77 10 8 boundary
116 117 153 152 110 111 147 146
78 10 8 boundary
117 118 154 153 111 112 148 147
79 10 8 boundary
118 119 155 154 112 113 149 148
80 10 8 boundary
119 120 156 155 113 114 150 149
81 10 8 boundary
121 122 158 157 115 116 152 151
82 10 8 design
122 123 159 158 116 117 153 152
83 10 8 design
123 124 160 159 117 118 154 153
84 10 8 design
124 125 161 160 118 119 155 154
85 10 8 boundary
125 126 162 161 119 120 156 155
86 10 8 boundary
127 128 164 163 121 122 158 157
87 10 8 design
128 129 165 164 122 123 159 158
88 10 8 design
129 130 166 165 123 124 160 159
89 10 8 design
130 131 167 166 124 125 161 160
90 10 8 boundary
131 132 168 167 125 126 162 161
91 10 8 boundary
133 134 170 169 127 128 164 163
92 10 8 design
134 135 171 170 128 129 165 164
93 10 8 design
135 136 172 171 129 130 166 165
94 10 8 design
136 137 173 172 130 131 167 166
95 10 8 boundary
137 138 174 173 131 132 168 167
96 10 8 boundary
139 140 176 175 133 134 170 169
97 10 8 boundary
140 141 177 176 134 135 171 170
98 10 8 boundary
141 142 178 177 135 136 172 171
99 10 8 boundary
142 143 179 178 136 137 173 172
100 10 8 boundary
143 144 180 179 137 138 174 173
101 10 8 boundary
151 152 188 187 145 146 182 181
102 10 8 boundary
152 153 189 188 146 147 183 182
103 10 8 boundary
153 154 190 189 147 148 184 183
104 10 8 boundary
154 155 191 190 148 149 185 184
105 10 8 boundary
155 156 192 191 149 150 186 185
106 10 8 boundary
157 158 194 193 151 152 188 187
107 10 8 boundary
158 159 195 194 152 153 189 188
108 10 8 boundary
159 160 196 195 153 154 190 189
109 10 8 boundary
160 161 197 196 154 155 191 190
110 10 8 boundary
161 162 198 197 155 156 192 191
111 10 8 boundary
163 164 200 199 157 158 194 193
112 10 8 boundary
164 165 201 200 158 159 195 194
113 10 8 boundary
165 166 202 201 159 160 196 195
114 10 8 boundary
166 167 203 202 160 161 197 196
115 10 8 boundary
167 168 204 203 161 162 198 197
116 10 8 boundary
169 170 206 205 163 164 200 199
117 10 8 boundary
170 171 207 206 164 165 201 200
118 10 8 boundary
171 172 208 207 165 166 202 201
119 10 8 boundary
172 173 209 208 166 167 203 202
120 10 8 boundary
173 174 210 209 167 168 204 203
121 10 8 boundary
175 176 212 211 169 170 206 205
122 10 8 boundary
176 177 213 212 170 171 207 206
123 10 8 boundary
177 178 214 213 171 172 208 207
124 10 8 boundary
178 179 215 214 172 173 209 208
125 10 8 boundary
179 180 216 215 173 174 210 209

[Node BC]
#NodeNr Level
1 left
7 left
13 left
19 left
25 left
31 left
37 left
43 left
49 left
55 left
61 left
67 left
73 left
79 left
85 left
91 left
97 left
103 left
109 left
115 left
121 left
127 left
133 left
139 left
145 left
151 left
157 left
163 left
169 left
175 left
6 right
12 right
18 right
24 right
30 right
36 right
42 right
48 right
54 right
60 right
66 right
72 right
78 right
84 right
90 right
96 right
102 right
108 right
114 right
120 right
126 right
132 right
138 right
144 right
150 right
156 right
162 right
168 right
174 right
180 right
186 right
192 right
198 right
204 right
210 right
216 right
1 bottom
2 bottom
3 bottom
4 bottom
5 bottom
6 bottom
37 bottom
38 bottom
39 bottom
40 bottom
41 bottom
42 bottom
73 bottom
74 bottom
75 bottom
76 bottom
77 bottom
78 bottom
109 bottom
110 bottom
111 bottom
112 bottom
113 bottom
114 bottom
145 bottom
146 bottom
147 bottom
148 bottom
149 bottom
150 bottom
181 bottom
182 bottom
183 bottom
184 bottom
185 bottom
186 bottom
31 top
32 top
33 top
34 top
35 top
36 top
67 top
68 top
69 top
70 top
71 top
72 top
103 top
104 top
105 top
106 top
107 top
108 top
139 top
140 top
141 top
142 top
143 top
144 top
175 top
176 top
177 top
178 top
179 top
180 top
211 top
212 top
213 top
214 top
215 top
216 top
1 back
2 back
3 back
4 back
5 back
6 back
7 back
8 back
9 back
10 back
11 back
12 back
13 back
14 back
15 back
16 back
17 back
18 back
19 back
20 back
21 back
22 back
23 back
24 back
25 back
26 back
27 back
28 back
29 back
30 back
31 back
32 back
33 back
34 back
35 back
36 back
181 front
182 front
183 front
184 front
185 front
186 front
187 front
188 front
189 front
190 front
191 front
192 front
193 front
194 front
195 front
196 front
197 front
198 front
199 front
200 front
201 front
202 front
203 front
204 front
205 front
206 front
207 front
208 front
209 front
210 front
211 front
212 front
213 front
214 front
215 front
216 front
1 left_bottom_back
6 right_bottom_back
31 left_top_back
36 right_top_back
181 left_bottom_front
186 right_bottom_front
211 left_top_front
216 right_top_front

[Save Nodes]
#NodeNr Level

[Save Elements]
#ElemNr Level
56 inlet
49 outlet
